…
## `broom`

Sometimes, the output from `glmnet()` can be overwhelming. The `broom` package can help with that.


```r
library(broom)
# the output from the commented line would be immense
# fit_lasso_cv
tidy(fit_lasso_cv)
```

```
## # A tibble: 80 x 6
##    lambda estimate std.error conf.low conf.high nzero
##     <dbl>    <dbl>     <dbl>    <dbl>     <dbl> <int>
##  1   255.  202300.    23338.  178962.   225637.     0
##  2   233.  193586.    23779.  169807.   217365.     1
##  3   212.  184510.    22822.  161687.   207332.     2
##  4   193.  177003.    22023.  154980.   199026.     2
##  5   176.  170233.    21430.  148803.   191663.     3
##  6   160.  163228.    21037.  142191.   184265.     4
##  7   146.  156644.    20382.  136262.   177027.     4
##  8   133.  150772.    19854.  130918.   170626.     4
##  9   121.  145915.    19434.  126481.   165349.     4
## 10   111.  141852.    19031.  122821.   160883.     4
## # ... with 70 more rows
```
…
