R for Statistical Learning
…
Chapter 22 Elastic Net

We again use the Hitters dataset from the ISLR package to explore another shrinkage method, elastic net, which combines the ridge and lasso methods from the previous chapter.

22.1 Hitters Data

data(Hitters, package = "ISLR")
Hitters = na.omit(Hitters)

We again remove the missing data, which was all in the response variable, Salary.

tibble::as_tibble(Hitters)

## # A tibble: 263 × 20
##    AtBat  Hits HmRun  Runs   RBI Walks Years CAtBat CHits CHmRun CRuns
## *  <int> <int> <int> <int> <int> <int> <int>  <int> <int>  <int> <int>
## 1    315    81     7    24    38    39    14   3449   835     69   321
## 2    479   130    18    66    72    76     3   1624   457     63   224
## 3    496   141    20    65    78    37    11   5628  1575    225   828
## 4    321    87    10    39    42    30     2    396   101     12    48
## 5    594   169     4    74    51    35    11   4408  1133     19   501
## 6    185    37     1    23     8    21     2    214    42      1    30
## 7    298    73     0    24    24     7     3    509   108      0    41
## 8    323    81     6    26    32     8     2    341    86      6    32
## 9    401    92    17    49    66    65    13   5206  1332    253   784
## 10   574   159    21   107    75    59    10   4631  1300     90   702
## # ... with 253 more rows, and 9 more variables: CRBI <int>, CWalks <int>,
## #   League <fctr>, Division <fctr>, PutOuts <int>, Assists <int>,
## #   Errors <int>, Salary <dbl>, NewLeague <fctr>
…
