R for Statistical Learning
…
First, note that a linear model is one of many methods used in regression.

To discuss linear models in the context of prediction, we return to the Advertising data from the previous chapter.

Advertising

## # A tibble: 200 x 4
##        TV Radio Newspaper Sales
##     <dbl> <dbl>     <dbl> <dbl>
##  1 230    37.8      69.2  22.1 
##  2  44.5  39.3      45.1  10.4 
##  3  17.2  45.9      69.3   9.30
##  4 152    41.3      58.5  18.5 
##  5 181    10.8      58.4  12.9 
##  6   8.70 48.9      75.0   7.20
##  7  57.5  32.8      23.5  11.8 
##  8 120    19.6      11.6  13.2 
##  9   8.60  2.10      1.00  4.80
## 10 200     2.60     21.2  10.6 
## # ... with 190 more rows
…
