R for Statistical Learning
…
TODO: Instead of specifically considering regression, change the focus of this chapter to modeling, with regression as an example.

This chapter will recap the basics of performing regression analyses in R. For more detailed coverage, see Applied Statistics with R.

We will use the Advertising data associated with Introduction to Statistical Learning.

library(readr)
Advertising = read_csv("data/Advertising.csv")

After loading data into R, our first step should always be to inspect the data. We will start by simply printing some observations in order to understand the basic structure of the data.

Advertising

## # A tibble: 200 x 4
##       TV Radio Newspaper Sales
##    <dbl> <dbl>     <dbl> <dbl>
##  1 230.1  37.8      69.2  22.1
##  2  44.5  39.3      45.1  10.4
##  3  17.2  45.9      69.3   9.3
##  4 151.5  41.3      58.5  18.5
##  5 180.8  10.8      58.4  12.9
##  6   8.7  48.9      75.0   7.2
##  7  57.5  32.8      23.5  11.8
##  8 120.2  19.6      11.6  13.2
##  9   8.6   2.1       1.0   4.8
## 10 199.8   2.6      21.2  10.6
## # ... with 190 more rows
…
Note that, we have only been dealing with numeric predictors. Categorical predictors are often recorded as factor variables in R.

library(tibble)
cat_pred = tibble(
  x1 = factor(c(rep("A", 10), rep("B", 10), rep("C", 10))),
  x2 = runif(n = 30),
  y  = rnorm(n = 30)
)
cat_pred

## # A tibble: 30 x 3
##        x1        x2           y
##    <fctr>     <dbl>       <dbl>
##  1      A 0.8273442 -0.34455993
##  2      A 0.9766440  0.95368333
##  3      A 0.2320437  0.05867145
##  4      A 0.9134716 -0.35357768
##  5      A 0.2578397  0.53533336
##  6      A 0.0347950 -0.50739406
##  7      A 0.7822417 -0.59968020
##  8      A 0.6121750 -0.43629072
##  9      A 0.6088496 -1.05564125
## 10      A 0.6375259 -0.42215025
## # ... with 20 more rows
…
