Chapter 24 Regularization | R for Statistical Learning
…
# CV-RMSE using 1-SE rule lambda
sqrt(fit_lasso_cv$cvm[fit_lasso_cv$lambda == fit_lasso_cv$lambda.1se]) 

## [1] 355.7098

24.3 broom

Sometimes, the output from glmnet() can be overwhelming. The broom package can help with that.

library(broom)
# the output from the commented line would be immense
# fit_lasso_cv
tidy(fit_lasso_cv)

## # A tibble: 80 x 6
##    lambda estimate std.error conf.low conf.high nzero
##     <dbl>    <dbl>     <dbl>    <dbl>     <dbl> <int>
##  1   255.  202540.    13105.  189435.   215646.     0
##  2   233.  194111.    13163.  180948.   207274.     1
##  3   212.  185234.    13087.  172146.   198321.     2
##  4   193.  177854.    13190.  164664.   191043.     2
##  5   176.  171154.    13498.  157655.   184652.     3
##  6   160.  164013.    13875.  150137.   177888.     4
##  7   146.  157265.    14093.  143172.   171359.     4
##  8   133.  151248.    14277.  136971.   165525.     4
##  9   121.  146210.    14481.  131728.   160691.     4
## 10   111.  142163.    14731.  127432.   156894.     4
## # … with 70 more rows
…
